<svg width="430" height="285" viewBox="0 0 430 285" fill="none" xmlns="http://www.w3.org/2000/svg">
<g filter="url(#filter0_d_137_249)">
<path fill-rule="evenodd" clip-rule="evenodd" d="M50 10C44.4772 10 40 14.4771 40 20V192C40 197.523 44.4772 202 50 202H203.464L212.628 213.836C213.829 215.387 216.171 215.387 217.372 213.836L226.536 202H380C385.523 202 390 197.523 390 192V20C390 14.4772 385.523 10 380 10H50Z" fill="white"/>
</g>
<defs>
<filter id="filter0_d_137_249" x="0" y="0" width="430" height="285" filterUnits="userSpaceOnUse" color-interpolation-filters="sRGB">
<feFlood flood-opacity="0" result="BackgroundImageFix"/>
<feColorMatrix in="SourceAlpha" type="matrix" values="0 0 0 0 0 0 0 0 0 0 0 0 0 0 0 0 0 0 127 0" result="hardAlpha"/>
<feOffset dy="30"/>
<feGaussianBlur stdDeviation="20"/>
<feColorMatrix type="matrix" values="0 0 0 0 0.831373 0 0 0 0 0.85098 0 0 0 0 0.909804 0 0 0 0.2 0"/>
<feBlend mode="normal" in2="BackgroundImageFix" result="effect1_dropShadow_137_249"/>
<feBlend mode="normal" in="SourceGraphic" in2="effect1_dropShadow_137_249" result="shape"/>
</filter>
</defs>
</svg>
