<svg width="1454" height="376" viewBox="0 0 1454 376" fill="none" xmlns="http://www.w3.org/2000/svg">
<g opacity="0.12">
<path fill-rule="evenodd" clip-rule="evenodd" d="M472.385 30.339C472.276 5.92126 428.783 -21.5372 410.205 -35.6936C373.47 -63.6932 335.264 -89.5494 297.412 -115.819C259.56 -142.088 221.606 -168.286 185.512 -197.126C162.076 -215.847 134.539 -236.932 118.645 -263.664C84.7852 -320.631 191.541 -312.172 219.195 -313.418C289.543 -316.601 370.234 -315.148 436.175 -344.814C475.539 -362.524 491.236 -392.226 482.781 -435.514C480.056 -449.592 471.99 -465.792 478.823 -479.507C486.119 -494.155 502.906 -502.607 516.838 -508.276C567.655 -528.926 626.081 -531.319 679.848 -533.911C737.825 -536.76 796.346 -535.926 853.914 -536.147C878.325 -536.24 903.818 -545.404 927.063 -552.853C957.537 -562.616 987.649 -573.582 1017.87 -584.185C1084.36 -607.456 1152.87 -631.967 1223.21 -637.877C1267.26 -641.58 1315.41 -636.574 1349.63 -604.366C1366.81 -588.194 1375.8 -564.154 1385.73 -542.798C1397.76 -516.999 1409.31 -490.95 1422.11 -465.557C1463.35 -383.773 1522.22 -303.854 1617.78 -299.838C1632.24 -299.233 1646.44 -301.205 1660.83 -301.576C1669.99 -301.804 1678.15 -299.489 1681.55 -289.47C1690.12 -264.34 1663.2 -224.669 1652.16 -204.731C1628 -161.086 1600.75 -119.4 1575.22 -76.6319C1558.33 -48.3475 1529.1 -9.69501 1528.79 24.6707C1528.52 55.2908 1567.49 77.4227 1588.7 92.5049C1608.58 106.626 1644.6 126.386 1646.78 155.112C1647.84 169.041 1639.05 180.584 1629.87 189.542C1613.79 205.208 1595.25 216.26 1580.78 234.134C1557.06 263.458 1537.23 303.805 1540.45 343.319C1542.69 370.699 1557.63 388.63 1576.65 405.77C1584.64 412.976 1591.13 418.075 1591.55 429.775C1592.23 448.353 1585.27 468.014 1579.53 485.24C1559.01 546.886 1529.87 606.495 1497.44 662.153C1481.24 689.967 1463.74 717.696 1442.26 741.423C1428.19 757.004 1409.22 775.547 1387.76 775.525C1362.91 775.525 1336.62 766.154 1312.47 759.147C1267.36 746.052 1222.8 730.913 1178.41 715.382C1075.77 679.449 974.088 640.607 873.372 598.855C802.43 569.395 729.983 539.893 663.286 500.728C650.279 493.037 638.001 484.069 626.62 473.946C614.459 463.314 599.368 458.557 584.067 455.011C489.097 433 385.052 449.898 289.686 460.494C265.481 463.179 241.275 465.878 217.001 467.758C196.133 469.374 171.151 474.01 150.869 467.046C110.905 453.338 145.841 402.815 160.611 382.228C212.613 309.744 279.706 248.418 341.893 185.811C371.46 155.995 401.253 126.258 429.212 94.7551C443.771 78.3769 472.48 51.7446 472.385 30.339Z" stroke="white"/>
<path fill-rule="evenodd" clip-rule="evenodd" d="M490.305 26.2226C474.366 0.385 446.401 -18.7121 423.188 -36.6846C389.782 -62.5578 355.327 -86.9932 321.389 -112.133C289.3 -135.907 257.142 -159.951 227.424 -186.949C209.304 -203.412 186.567 -223.1 177.984 -247.45C159.366 -300.228 259.528 -292.221 284.255 -293.602C345.728 -297.018 415.423 -297.801 472.294 -325.589C507.806 -342.942 522.395 -371.72 514.821 -411.672C512.203 -425.495 507.485 -437.296 513.458 -451.048C520.364 -466.963 536.248 -476.885 550.81 -483.889C596.426 -505.833 650.345 -510.496 699.792 -514.375C750.875 -518.382 804.099 -521.208 853.539 -518.275C873.31 -517.108 896.067 -523.735 915.633 -528.817C945.739 -536.646 975.538 -545.679 1005.49 -554.078C1066.37 -571.161 1128.83 -587.617 1192.17 -589.489C1237.89 -590.841 1285.57 -583.51 1323.61 -555.174C1362.16 -526.439 1379.27 -481.896 1400.65 -439.552C1437.57 -366.346 1487.44 -277.338 1572.86 -261.871C1585.82 -259.522 1598.26 -260.796 1611.2 -260.219C1617.86 -259.927 1625.43 -259.002 1628.81 -252.148C1637.57 -234.353 1613.56 -201.818 1605.48 -188.187C1583.16 -150.52 1558.07 -114.696 1534.68 -77.7543C1516.1 -48.4218 1492.55 -15.8294 1485.37 18.9411C1476.65 61.1355 1533.62 91.1584 1553.66 120.868C1588.39 172.387 1522.58 201.741 1490.14 226.304C1452.88 254.505 1422.13 305.952 1455.53 349.585C1468.3 366.269 1484.02 376.212 1489.73 397.986C1498.65 432.037 1491.91 470.95 1484.67 504.61C1473.76 555.211 1456.5 605.263 1433.03 650.995C1416.22 683.737 1388.33 735.078 1347.48 731.227C1319.99 728.658 1292.04 719.269 1265.27 710.97C1225.18 698.549 1185.6 684.392 1146.23 669.687C1055.34 635.834 965.462 598.509 877.346 557.453C817.223 529.43 649.513 414.912 636.894 410.826C599.269 398.655 556.489 400.797 517.698 402.683C466.097 405.189 414.754 411.68 363.453 417.695C339.033 420.542 314.49 424.023 289.941 425.425C272.467 426.421 249.52 427.275 234.215 416.663C204.341 395.957 237.623 348.581 251.388 328.537C293.554 267.089 346.894 213.876 396.906 159.468C421.449 132.755 446.367 106.084 468.646 77.2288C477.632 65.577 500.157 42.1808 490.305 26.2226Z" stroke="white"/>
<path fill-rule="evenodd" clip-rule="evenodd" d="M512.357 12.9717C468.827 -38.7323 408.747 -77.1863 356.894 -120.368C330.869 -142.048 304.68 -164.318 282.233 -190.142C270.557 -203.57 255.976 -220.551 253.727 -239.269C247.715 -289.342 337.992 -282.571 365.012 -284.472C417.253 -288.16 476.27 -290.958 523.665 -316.511C552.621 -332.132 566.881 -357.771 561.469 -391.469C559.07 -406.42 555.334 -419.122 561.469 -433.803C567.686 -448.676 580.637 -459.171 593.752 -467.038C631.44 -489.665 678.276 -496.899 720.708 -502.288C770.486 -508.566 820.637 -511.017 870.759 -509.622C914.657 -508.418 958.343 -521.953 1001.21 -530.874C1057.99 -542.686 1115.8 -553.003 1173.9 -551.443C1219.79 -550.205 1266.04 -540.472 1305.27 -514.606C1345.13 -488.262 1369.1 -448.833 1390.7 -406.285C1423.37 -341.965 1464.08 -255.772 1535.74 -231.344C1546.16 -227.784 1555.87 -227.393 1566.62 -226.773C1571.84 -226.474 1578.59 -226.382 1581.18 -220.693C1587.41 -206.994 1564.37 -180.438 1557.95 -171.182C1537.43 -141.635 1515.19 -113.419 1494.16 -84.2634C1474.53 -57.0444 1453.14 -28.6791 1440.95 3.21762C1421.54 54.0174 1483.58 83.7212 1481.85 132.129C1480.76 162.181 1453.22 183.733 1431.4 198.642C1404.55 216.975 1365.88 229.029 1352.44 262.485C1342.42 287.404 1358.13 301.907 1370.23 320.818C1390.74 352.857 1392.14 396.288 1390 433.375C1387.13 483.491 1375.88 534.348 1356.75 580.413C1348.08 601.295 1337.46 623.018 1321.82 639.237C1307.18 654.437 1293.31 658.332 1273.73 655.221C1213.8 645.68 1153.29 619.088 1095.82 595.336C1023.62 565.49 952.406 532.539 883.321 495.466C836.213 470.184 788.041 443.435 746.693 408.505C735.916 399.399 724.88 389.502 717 377.491C711.042 368.463 708.514 361.009 698.473 355.854C668.712 340.582 627.316 344.576 595.429 346.164C544.442 348.692 493.7 355.42 443.026 361.479C413.457 365.039 357.753 376.238 334.14 349.375C313.759 326.179 338.353 286.628 350.916 266.195C382.694 214.519 423.572 169.166 461.499 122.467C478.881 101.065 496.945 79.4992 511.3 55.7048C514.967 49.6387 520.843 41.6005 521.852 34.2315C522.983 25.7874 517.701 19.3439 512.357 12.9717Z" stroke="white"/>
<path fill-rule="evenodd" clip-rule="evenodd" d="M516.099 25.0081C475.876 -20.7077 427.417 -58.2651 384.235 -101.045C364.874 -120.227 345.321 -140.348 330.568 -163.748C322.633 -176.331 314.206 -192.171 316.395 -207.811C322.674 -252.7 396.923 -248.646 426.92 -251.275C471.492 -255.137 522.698 -259.027 562.11 -283.232C587.928 -299.085 597.608 -322.499 592.788 -352.696C587.614 -385.088 599.183 -408.601 625.512 -426.671C658.523 -449.308 700.191 -458.535 738.519 -465.09C784.696 -472.95 831.459 -476.435 878.236 -475.5C923.729 -474.588 967.804 -482.554 1013 -487.734C1072.92 -494.596 1134.76 -497.981 1194 -483.915C1245.58 -471.667 1292.17 -444.676 1327.1 -402.936C1363.58 -359.372 1381.64 -304.486 1411.26 -256.291C1429.74 -226.229 1455.5 -186.463 1490.02 -174.778C1501.54 -170.88 1522.52 -176.139 1513.32 -156.965C1508.07 -145.999 1498.23 -136.38 1490.46 -127.416C1477.9 -112.93 1464.93 -98.8436 1452.16 -84.5574C1424.94 -54.104 1395.8 -23.0021 1375.4 13.0589C1349.7 58.4612 1387.9 93.4036 1383.25 139.44C1380.74 164.215 1364.26 183.987 1346.82 199.52C1335.54 209.581 1323.19 218.296 1310.59 226.426C1297.42 234.919 1281.84 241.389 1270.36 252.369C1254 267.994 1261.11 286.492 1264.17 306.692C1269.57 342.192 1270.76 378.252 1267.7 414.056C1263.97 457.94 1255.21 503.079 1236.75 542.959C1229.57 558.485 1220.48 574.945 1206.97 585.355C1193.47 595.765 1179.5 595.052 1164.02 591.917C1118.12 582.654 1072.32 561.1 1028.77 540.672C974.274 515.099 920.845 486.52 869.823 454.007C834.604 431.562 799.269 407.315 769.804 376.883C761.235 368.026 753.081 358.543 746.488 347.954C741.962 340.694 739.535 331.324 732.976 325.866C712.456 308.829 671.258 313.917 647.192 314.907C599.163 316.881 551.891 326.265 503.923 328.545C477.744 329.792 436.744 332.927 417.518 309.635C399.438 287.739 415.814 253.252 426.62 232.154C447.856 190.671 476.387 153.712 501.959 115.15C512.472 99.282 523.993 82.6801 530.804 64.5605C536.858 48.4146 526.407 36.7292 516.099 25.0081Z" stroke="white"/>
<path fill-rule="evenodd" clip-rule="evenodd" d="M525.992 25.7559C493.976 -14.4727 455.379 -50.1832 423.131 -91.0664C404.255 -115.009 371.748 -155.259 386.346 -189.013C402.361 -226.103 458.186 -227.114 490.454 -230.102C528.86 -233.66 573.962 -238.519 606.83 -261.679C617.225 -269 626.08 -278.691 629.834 -291.455C633.853 -305.116 629.459 -317.07 628.887 -330.745C627.688 -359.433 644.078 -382.464 665.767 -398.281C696.421 -420.644 734.752 -431.217 770.958 -438.588C811.977 -446.902 853.676 -451.001 895.46 -450.826C935.392 -450.683 974.901 -451.608 1014.87 -452.676C1067.15 -454.099 1120.16 -451.801 1170.87 -437.293C1220.82 -422.992 1266.24 -396.189 1301.91 -356.765C1336.71 -318.293 1360.19 -271.27 1380.76 -223.371C1392.43 -196.185 1412.14 -155.557 1439.98 -141.825C1452.35 -135.714 1464.5 -136.133 1451.34 -120.238C1434.76 -100.224 1412.43 -84.1648 1393.23 -67.046C1365.54 -42.3424 1337.16 -17.1551 1313.91 12.2159C1299.07 30.9712 1292.46 49.1716 1293.48 73.4553C1294.27 91.9545 1297.85 110.262 1296.04 128.832C1291.79 172.419 1258.94 202.309 1229.89 230.143C1211.21 248.045 1194.14 261.699 1184.53 287.164C1173.15 317.26 1168.38 350.004 1160.77 381.253C1152.42 415.569 1142.78 451.266 1124.55 481.49C1108.32 508.4 1088.59 520.467 1059.05 513.216C1012.98 501.918 967.572 474.084 926.673 448.334C885.045 422.136 844.132 392.68 809.636 356.671C791.012 337.225 778.301 314.393 761.761 293.503C740.958 267.277 693.894 277.21 665.924 279.43C619.493 283.115 473.397 310.693 486.878 221.371C492.504 184.088 514.664 149.679 530.869 116.779C537.586 103.125 547.307 86.7392 548.826 71.0931C550.481 54.0526 535.617 37.8657 525.992 25.7559Z" stroke="white"/>
<path fill-rule="evenodd" clip-rule="evenodd" d="M542.896 29.1719C518.43 -7.2834 489.149 -41.724 468.156 -81.098C454.537 -106.597 441.164 -140.668 458.732 -167.648C478.561 -198.095 522.284 -205.193 554.411 -209.072C587.511 -213.066 627.026 -216.426 654.08 -239.512C662.687 -246.866 669.782 -256.782 671.103 -268.657C672.377 -280.047 668.782 -291.437 669.973 -303.033C672.642 -329.074 687.752 -350.53 707.234 -366.091C764.862 -412.128 850.633 -422.365 920.164 -423.568C954.967 -424.166 990.785 -421.027 1025.81 -418.777C1071.26 -415.859 1116.79 -409.594 1160.13 -394.495C1252.3 -362.404 1314.07 -291.23 1357.22 -202.665C1370.8 -174.788 1381.19 -144.626 1402.47 -122.223C1413.44 -110.655 1411.04 -102.348 1399.83 -91.7976C1382.29 -75.3105 1360.9 -62.7102 1341.44 -48.9496C1313.76 -29.3801 1285.49 -9.51868 1261.01 13.9235C1244.14 30.0831 1232.16 45.6519 1228.52 69.8842C1225.93 87.1615 1226.53 104.766 1224.97 122.15C1222 155.174 1211.84 187.949 1193.84 215.342C1179.54 237.054 1162.52 256.788 1144.92 275.603C1122.05 300.098 1102.7 324.986 1085.33 354.059C1062.3 392.543 1029.95 463.531 975.702 444.745C915.874 424.015 859.799 371.343 821.414 320.309C808.524 303.174 797.942 282.159 780.558 269.523C754.532 250.637 728.125 251.299 697.17 251.377C650.825 251.484 549.978 261.999 548.888 189.444C548.459 160.698 560.362 133.519 566.062 105.87C572.49 74.9029 559.606 54.0164 542.896 29.1719Z" stroke="white"/>
<path fill-rule="evenodd" clip-rule="evenodd" d="M561.119 32.4223C536.919 -15.0908 482.652 -93.1648 523.926 -145.999C545.728 -173.921 584.29 -184.414 616.639 -190.667C642.672 -195.724 674.068 -197.624 693.737 -219.065C708.195 -234.829 701.777 -257.771 707.316 -277.505C714.19 -301.969 729.97 -321.987 749.36 -337.033C803.545 -379.083 878.885 -391.987 944.067 -394.733C1011.76 -397.579 1086.35 -384.269 1150.06 -358.666C1229.48 -326.732 1288.99 -266.265 1330.6 -189.692C1338.28 -175.557 1345.26 -161.052 1352.63 -146.746C1357.58 -137.149 1364.93 -127.866 1368.83 -117.771C1375.33 -100.94 1367.68 -87.1821 1355.4 -76.2126C1337.74 -60.4199 1316.05 -49.1802 1295.91 -37.3286C1268.38 -21.1091 1240.23 -5.1813 1214.62 13.8481C1197.41 26.653 1179.4 40.4466 1173.24 62.663C1169.04 77.8154 1168.17 93.8642 1168.32 109.557C1168.64 143.206 1166.95 170.416 1151.92 201.233C1127.19 251.826 1089.16 297.319 1048.98 335.171C1017.45 364.879 967.558 411.026 921.617 391.164C880.397 373.38 856.286 330.811 829.128 296.394C815.925 279.662 801.092 264.382 783.664 252.481C761.692 237.478 741.007 231.182 714.974 228.728C671.158 224.595 605.091 223.52 591.547 168.602C586.546 148.335 589.4 127.342 586.777 106.811C583.35 79.665 573.328 56.3887 561.119 32.4223Z" stroke="white"/>
<path fill-rule="evenodd" clip-rule="evenodd" d="M586.283 34.1817C569.05 -17.8068 546.411 -83.3266 588.033 -129.532C608.194 -151.916 636.552 -164.429 663.998 -173.779C683.655 -180.481 714.866 -182.454 726.917 -203.057C735.769 -218.219 736.994 -239.135 745.001 -255.38C756.004 -277.714 772.672 -296.109 792.227 -310.509C843.17 -348.034 909.521 -362.533 970.03 -366.685C1101.51 -375.694 1235.28 -303.943 1305.64 -185.893C1326.62 -150.705 1353.69 -113.252 1319.79 -77.3016C1282.78 -38.0824 1227.03 -19.7083 1182.85 8.15892C1165.97 18.7988 1144.46 31.5894 1135.05 50.8536C1129.38 62.4335 1128.99 76.9618 1128.73 89.7096C1128.05 122.178 1125.47 151.377 1112.98 181.672C1093.68 228.49 1062.91 271.684 1028.05 307.064C997.639 337.916 954.274 374.172 910.113 351.931C876.253 334.839 854.778 298.561 828.47 271.819C799.192 242.036 762.983 221.967 723.22 212.16C684.54 202.646 642.115 196.229 621.729 155.806C614.737 141.94 607.431 123.986 604.81 108.639C600.578 83.3348 594.382 58.4333 586.283 34.1817Z" stroke="white"/>
<path fill-rule="evenodd" clip-rule="evenodd" d="M614.342 34.5479C606.369 -17.9494 605.483 -72.6895 642.524 -114.065C659.812 -133.368 681.664 -147.082 703.762 -159.506C720.02 -168.649 736.81 -176.36 748.953 -191.348C760.203 -205.225 768.754 -221.338 779.616 -235.579C793.944 -254.45 811.087 -270.787 830.387 -283.96C878.767 -316.92 937.62 -332.335 993.924 -337.682C1021.18 -340.281 1050.75 -341.634 1077.82 -334.55C1103.96 -327.714 1129.82 -316.906 1153.86 -304.303C1204.96 -277.538 1249.25 -238.341 1281.36 -188.785C1303.38 -154.793 1315.28 -121.741 1286.77 -87.2575C1254.63 -48.3883 1204.23 -26.9422 1162.69 -1.71531C1134.2 15.5868 1102.27 32.5472 1096.95 69.3159C1092.71 98.5729 1089.27 126.342 1078.31 153.997C1061.99 194.788 1038 231.739 1007.76 262.658C980.098 290.826 945.108 314.728 905.546 299.683C874.202 287.743 849.882 260.992 822.497 241.867C791.977 220.506 758.445 208.73 723.134 199.26C691.401 190.715 661.522 177.586 641.012 149.71C636.814 144.014 632.406 137.812 629.169 131.44C625.04 123.308 625.36 115.248 624.549 106.135C622.437 82.0825 617.946 58.308 614.342 34.5479Z" stroke="white"/>
<path fill-rule="evenodd" clip-rule="evenodd" d="M645.279 30.257C645.96 -19.6076 657.436 -66.7337 688.868 -105.594C702.306 -122.218 718.353 -135.911 733.139 -151.144C745.044 -163.425 756.296 -174.836 769.986 -184.955C802.46 -208.918 828.852 -239.926 863.363 -261.264C909.431 -289.791 962.202 -305.559 1014.56 -311.864C1040.13 -314.944 1066.54 -316.021 1092.41 -312.541C1114.63 -309.553 1135.91 -299.062 1155.64 -288.329C1194.33 -267.305 1231.89 -237.423 1257.01 -199.618C1312.39 -116.27 1203.2 -55.6725 1147.16 -20.1853C1121.39 -3.86092 1082.01 15.0452 1071.45 47.3802C1063.91 70.4797 1059.31 93.9714 1049.59 116.358C1023.49 176.478 970.491 247.188 899.869 237.774C869.649 233.752 842.106 217.413 813.895 206.445C784.847 195.148 754.866 188.851 724.673 181.941C696.456 175.486 673.966 166.301 655.74 141.675C647.029 129.915 647.799 115.837 647.023 101.41C645.756 77.7112 644.972 53.8771 645.279 30.257Z" stroke="white"/>
<path fill-rule="evenodd" clip-rule="evenodd" d="M673.45 23.87C684.796 -51.3962 726.934 -133.566 788.893 -177.276C861.775 -228.694 940.732 -271.992 1027.81 -284.44C1068.18 -290.211 1112.41 -293.051 1150.5 -274.177C1179.49 -259.823 1213.17 -238.366 1229.12 -208.191C1268.16 -134.384 1181.33 -75.6285 1131.87 -41.4826C1105.23 -23.1002 1071.33 -5.18752 1051.26 21.6566C1039.61 37.2209 1033.67 57.8094 1024.26 74.9037C995.771 126.706 948.867 168.488 890.439 175.961C863.425 179.412 836.213 175.142 809.402 171.748C781.958 168.275 754.173 166.389 726.899 161.542C705.128 157.671 679.471 151.116 671.452 126.77C661.34 96.0902 668.82 54.607 673.45 23.87Z" stroke="white"/>
<path fill-rule="evenodd" clip-rule="evenodd" d="M701.075 11.779C717.622 -58.9839 752.661 -128.009 811.566 -170.253C842.803 -192.653 879.065 -208.117 913.879 -223.395C953.343 -240.71 994.574 -254.15 1036.69 -260.817C1089.12 -269.122 1174.04 -276.607 1201.43 -214.178C1228.62 -152.211 1159.92 -97.3675 1119.28 -66.1136C1093.24 -46.092 1065.36 -27.7157 1040.47 -5.82801C1026.97 6.03823 1016.58 19.7492 1005.15 33.6668C973.59 72.2285 928.59 102.756 882.724 119.052C838.271 134.85 783.278 141.845 736.353 136.624C716.106 134.38 701.634 126.809 695.511 105.284C687.026 75.3624 694.235 41.0101 701.075 11.779Z" stroke="white"/>
<path fill-rule="evenodd" clip-rule="evenodd" d="M728.524 -7.27983C744.963 -69.5839 780.419 -126.49 832.136 -163.884C890.109 -205.803 964.758 -229.096 1033.37 -240.941C1069.84 -247.233 1148.87 -264.291 1167.46 -215.471C1186.05 -166.65 1132.31 -118.539 1101.38 -92.0543C1063.84 -59.9589 1023.37 -28.9699 982.945 -0.172707C947.823 24.8653 910.345 50.4635 872.302 69.7988C850.846 80.7676 828.496 89.7235 805.515 96.5604C788.498 101.582 766.86 109.072 749.019 105.334C704.02 95.8936 720.663 22.5104 728.524 -7.27983Z" stroke="white"/>
<path fill-rule="evenodd" clip-rule="evenodd" d="M762.408 -25.9369C798.475 -143.761 912.747 -201.709 1022.77 -221.908C1048.34 -226.596 1120.01 -243.5 1134.3 -207.508C1148.15 -172.611 1104.11 -131.225 1083.49 -111.618C1019.59 -50.8592 940.655 -5.80976 865.853 38.8199C842.504 52.7503 800.394 82.9801 771.431 69.0355C739.985 53.8673 754.936 -1.50546 762.408 -25.9369Z" stroke="white"/>
<path fill-rule="evenodd" clip-rule="evenodd" d="M799.352 -48.615C830.718 -135.384 921.948 -185.149 1005.83 -201.555C1026.37 -205.569 1078.55 -218.067 1094.11 -193.854C1108.51 -171.455 1074.14 -139 1061.29 -126.103C1032.66 -97.3838 998.745 -73.7254 965.235 -50.9851C934.252 -29.9459 902.933 -8.38002 870.332 9.41362C853.16 18.7802 820.954 38.7661 801.441 24.3034C780.433 8.74462 792.388 -29.348 799.352 -48.615Z" stroke="white"/>
<path fill-rule="evenodd" clip-rule="evenodd" d="M-209.16 97.1121C-210.024 41.5236 -238.291 -16.2486 -224.331 -72.8898C-212.868 -119.409 -155.157 -123.293 -120.536 -144.369C-93.0242 -161.113 -77.411 -190.774 -62.5327 -219.234C-49.1646 -244.784 -37.1571 -271.102 -23.0746 -296.232C-13.9585 -312.479 1.69548 -344.381 21.4653 -344.957C40.3915 -345.512 57.7463 -320.652 68.7401 -305.956C83.0742 -286.801 95.7824 -266.379 109.702 -246.918C133.159 -214.091 161.303 -189.793 193.529 -166.796C230.203 -140.63 267.481 -115.357 305.366 -90.9783C333.258 -72.9752 361.342 -55.1072 388.153 -35.3258C404.97 -22.9136 442.088 0.374577 442.258 23.2573C442.339 34.1758 432.441 46.268 425.767 54.9957C414.474 69.7695 401.602 83.2772 388.69 96.4932C364.641 121.111 339.572 144.613 314.774 168.399C282.589 199.27 251.846 229.635 223.552 264.681C194.298 300.958 166.351 338.429 137.832 375.389C118.518 400.427 99.2248 428.545 71.3661 443.909C36.4729 463.114 7.83187 442.863 -27.4558 442.628C-57.8113 442.422 -55.5731 368.902 -59.4304 348.459C-63.3014 327.767 -71.8325 308.505 -75.1388 287.763C-79.2615 261.872 -79.3159 235.383 -80.3296 209.214C-81.561 177.205 -82.0508 146.733 -114.781 134.527C-133.407 127.592 -153.558 126.133 -172.838 121.979C-185.329 119.283 -208.888 114.674 -209.16 97.1121Z" stroke="white"/>
<path fill-rule="evenodd" clip-rule="evenodd" d="M-194.237 87.2234C-197.419 40.6265 -216.217 -19.0141 -198.441 -67.114C-183.253 -108.218 -135.757 -113.547 -103.775 -135.139C-77.373 -152.949 -65.6199 -182.092 -52.4223 -210.723C-41.8342 -233.69 -31.5664 -256.878 -19.5475 -279.112C-10.6901 -295.496 2.83455 -323.158 21.2512 -326.549C37.8078 -329.598 55.5636 -305.178 64.8571 -292.754C78.4158 -274.617 90.0122 -254.919 101.99 -235.635C123.037 -201.761 144.588 -171.3 175.391 -146.416C206.331 -121.426 240.18 -102.74 274.39 -83.2922C301.153 -68.0757 327.78 -52.4176 353.208 -34.8503C372.149 -21.771 399.382 -5.02999 408.049 18.2934C414.91 36.7441 380.114 67.3622 369.853 78.169C348.731 100.388 326.349 121.247 303.926 141.977C276.591 167.238 248.383 189.329 224.243 218.145C181.067 269.664 144.976 333.821 89.4194 372.112C55.911 395.207 18.6212 401.113 -18.6482 397.658C-33.406 396.29 -36.949 374.513 -38.809 361.811C-41.9023 340.71 -42.2907 319.246 -44.6686 298.06C-46.8966 278.227 -51.8431 259.385 -55.829 239.937C-59.8625 220.232 -60.9935 200.043 -63.9642 180.203C-65.8038 167.886 -67.623 153.553 -75.6696 143.651C-83.9956 133.4 -97.7315 129.104 -109.737 125.842C-132.282 119.772 -191.988 120.107 -194.237 87.2234Z" stroke="white"/>
<path fill-rule="evenodd" clip-rule="evenodd" d="M-175.03 67.7171C-180.381 24.9447 -187.873 -28.3287 -166.072 -67.736C-148.253 -99.9576 -110.25 -106.909 -83.105 -127.903C-60.5277 -145.362 -51.9998 -173.13 -40.793 -198.935C-31.5971 -220.1 -22.3535 -241.358 -11.208 -261.5C-2.75517 -276.774 8.13811 -297.485 24.9211 -302.814C39.2705 -307.367 55.4809 -286.97 63.4361 -276.817C76.9811 -259.515 88.0243 -240.128 98.9926 -220.997C116.934 -189.693 133.445 -156.255 158.981 -130.792C183.794 -106.083 213.27 -91.4985 243.298 -75.0995C266.298 -62.5353 289.154 -49.4873 310.825 -34.5041C327.465 -23.0071 348.086 -9.3828 356.757 9.74811C364.255 26.2467 345.005 45.776 335.386 57.4153C319.503 76.6245 301.875 94.2471 284.492 111.941C265.732 131.029 244.954 148.638 226.801 168.195C188.627 209.353 158.128 254.921 111.079 286.453C80.6076 306.878 39.6045 325.433 3.58446 322.096C-22.3194 319.692 -20.6152 259.773 -23.1034 240.628C-27.1934 209.324 -35.0941 176.434 -47.6439 147.599C-58.4213 122.89 -84.032 115.27 -107.591 109.728C-122.349 106.249 -137.817 104.371 -152.091 98.9925C-168.615 92.7602 -172.787 85.6457 -175.03 67.7171Z" stroke="white"/>
<path fill-rule="evenodd" clip-rule="evenodd" d="M-157.114 47.6682C-160.3 11.5062 -159.584 -31.2558 -138.945 -62.5372C-120.858 -89.9369 -88.6558 -97.1508 -65.7523 -118.735C-47.8771 -135.575 -40.8567 -163.031 -31.2436 -185.301C-19.4951 -212.529 -3.03219 -262.819 26.6052 -273.066C54.1753 -282.591 83.0076 -221.741 92.989 -203.596C108.79 -174.876 122.006 -143.381 141.17 -116.859C157.674 -94.0255 179.786 -81.4031 203.256 -67.8388C233.18 -50.5142 278.611 -29.9715 294.61 3.79296C306.536 28.9522 267.757 66.3557 254.514 83.7873C240.664 101.997 230.232 123.581 215.939 141.148C193.384 168.869 156.835 191.189 126.659 208.221C97.3214 224.789 59.224 243.127 25.9434 242.035C4.07013 241.322 -0.0916517 206.016 -4.75831 188.77C-11.4445 164.253 -20.3343 142.283 -39.4307 125.608C-58.8683 108.633 -81.7786 100.634 -105.862 93.6341C-118.225 90.0664 -132.327 87.2836 -143.387 80.0769C-155.606 72.2352 -155.886 61.5678 -157.114 47.6682Z" stroke="white"/>
<path fill-rule="evenodd" clip-rule="evenodd" d="M-135.285 26.8246C-135.108 -4.41667 -128.273 -37.7312 -108.008 -61.8295C-91.129 -81.902 -64.7092 -88.6118 -48.5512 -109.132C-35.7527 -125.377 -29.2379 -148.183 -20.6693 -167.049C-10.1897 -190.167 4.62852 -230.554 30.6879 -238.577C56.1217 -246.387 78.6177 -201.904 88.3696 -184.302C102.651 -158.493 114.211 -131.135 128.622 -105.397C139.91 -85.2037 153.715 -72.1889 172.097 -59.1741C193.675 -43.8872 223.781 -26.953 235.308 -1.66177C243.618 16.6499 223.502 45.9101 216.198 62.0419C211.302 72.877 206.82 83.8824 204.359 95.6263C202.441 104.771 202.25 113.235 196.694 121.088C182.706 140.841 152.036 143.418 131.226 149.929C103.589 158.57 74.2654 168.39 45.343 170.264C27.5665 171.436 18.4947 154.317 8.34839 142.275C-3.64085 128.039 -20.6149 117.8 -35.4399 107.058C-55.0049 92.8572 -76.2972 84.0244 -98.3239 74.9787C-108.259 70.896 -119.929 66.8914 -127.627 58.7758C-135.665 50.362 -135.346 38.0998 -135.285 26.8246Z" stroke="white"/>
<path fill-rule="evenodd" clip-rule="evenodd" d="M-112.357 8.27816C-108.845 -17.9603 -97.8985 -43.038 -79.4096 -61.5865C-65.2365 -75.8272 -46.414 -83.8447 -35.0389 -100.955C-24.4397 -116.904 -17.0537 -135.04 -8.29934 -152.093C0.96555 -170.122 14.7301 -200.255 36.0986 -205.161C59.1281 -210.444 76.8682 -180.047 86.6913 -163.201C99.1012 -141.911 108.529 -119.005 119.626 -96.9817C127.985 -80.5669 138.648 -65.5544 151.26 -52.444C164.486 -38.6235 182.424 -25.3868 189.116 -6.38261C195.031 10.4499 183.962 30.814 182.009 47.8814C179.919 66.1166 183.581 85.2703 171.995 100.928C148.101 133.219 88.1345 127.23 53.8523 127.921C20.0263 128.633 -7.16931 108.874 -34.5419 90.0765C-52.6224 77.6658 -71.4517 67.1561 -89.9883 55.5927C-108.886 43.7943 -115.448 31.3694 -112.357 8.27816Z" stroke="white"/>
<path fill-rule="evenodd" clip-rule="evenodd" d="M-91.056 -6.73972C-80.6684 -44.7516 -48.225 -64.9548 -25.0318 -93.6811C-6.05483 -117.198 8.17447 -165.899 40.1342 -172.342C76.4192 -179.653 98.1412 -115.124 110.756 -90.2248C124.754 -62.6102 149.684 -40.148 160.051 -10.9157C165.5 4.42727 160.821 18.7441 157.919 34.0799C154.738 50.9195 152.347 68.1367 141.367 81.691C119.754 108.365 77.5431 108.18 47.1433 108.914C15.674 109.676 -12.1648 91.3971 -37.238 73.1537C-63.8303 53.8341 -101.696 32.2414 -91.056 -6.73972Z" stroke="white"/>
<path fill-rule="evenodd" clip-rule="evenodd" d="M-73.6578 -17.0472C-61.953 -44.1295 -37.3563 -66.1467 -17.3976 -86.9313C-0.739065 -104.259 17.1819 -139.141 42.5814 -141.627C72.4336 -144.56 90.5261 -107.312 102.272 -84.4732C113.833 -62.0309 130.491 -38.3348 136.893 -13.7036C143.569 11.9549 125.792 46.5109 108.838 64.6673C89.9292 84.9135 58.9929 92.3942 32.4476 91.5866C4.6537 90.7649 -20.8487 74.0324 -41.8982 56.6764C-64.4023 38.1233 -87.2701 14.3918 -73.6578 -17.0472Z" stroke="white"/>
<path fill-rule="evenodd" clip-rule="evenodd" d="M-57.5141 -22.1459C-46.3335 -44.6712 -26.9529 -63.726 -9.08315 -80.7229C4.70717 -93.8449 25.0561 -116.157 44.9518 -116.704C66.8391 -117.307 85.3888 -98.5784 94.0901 -79.3816C102.668 -60.4473 111.706 -36.7085 112.99 -15.9362C115.778 29.2988 59.01 79.97 16.3822 75.8467C-24.0341 71.9364 -79.8066 22.7343 -57.5141 -22.1459Z" stroke="white"/>
<path fill-rule="evenodd" clip-rule="evenodd" d="M-42.5841 -24.6296C-27.1599 -53.9782 10.3059 -95.8187 44.9916 -96.8123C84.805 -97.9479 94.7995 -51.3876 89.61 -17.6456C84.3382 16.792 38.4361 66.6385 1.83527 59.9028C-33.887 53.3305 -60.864 10.177 -42.5841 -24.6296Z" stroke="white"/>
<path fill-rule="evenodd" clip-rule="evenodd" d="M-26.8203 -29.3751C-13.7611 -53.9482 14.1062 -84.6415 43.1713 -85.5705C77.803 -86.6697 77.1497 -47.3599 69.2965 -22.8932C61.1302 2.50965 25.1647 45.8973 -5.15934 39.0466C-34.6463 32.359 -39.3351 -5.82321 -26.8203 -29.3751Z" stroke="white"/>
<path fill-rule="evenodd" clip-rule="evenodd" d="M-13.0904 -32.2031C-4.47043 -49.7372 17.1034 -71.8982 37.6125 -72.6073C62.6808 -73.4597 57.8077 -42.2809 51.3308 -27.2323C43.6322 -9.32582 17.8269 21.7885 -3.82887 16.746C-25.1502 11.7823 -20.2021 -17.7562 -13.0904 -32.2031Z" stroke="white"/>
</g>
</svg>
